…
## Basic Example - univariate data and maps

1.  Get the full list of available data at NUTS 3 level:

``` r
library(mapineqr)

available_data <- mi_sources(level = "3")
head(available_data)
```

    # A tibble: 52 × 3
       source_name    short_description      description                                                         
       <chr>          <chr>                  <chr>                                                               
     1 DEMO_R_D3AREA  "Area by NUTS 3 regio" Area by NUTS 3 region (ESTAT)                                       
     2 PROJ_19RAASFR3 "Assumptions for fert" Assumptions for fertility rates by age, type of projection and NUTS…
     3 PROJ_19RAASMR3 "Assumptions for prob" Assumptions for probability of dying by age, sex, type of projectio…
     4 BD_HGNACE2_R3  "Business demography " Business demography and high growth enterprise by NACE Rev. 2 and N…
     5 BD_SIZE_R3     "Business demography " Business demography by size class and NUTS 3 regions (ESTAT)        
     6 CENS_11DWOB_R3 "Conventional dwellin" Conventional dwellings by occupancy status, type of building and NU…
     7 CRIM_GEN_REG   "Crimes recorded by t" Crimes recorded by the police by NUTS 3 regions (ESTAT)             
     8 DEMO_R_MAGEC3  "Deaths by age group," Deaths by age group, sex and NUTS 3 region (ESTAT)                  
     9 DEMO_R_MWK3_T  "Deaths by week and N" Deaths by week and NUTS 3 region (ESTAT)                            
    10 DEMO_R_MWK3_TS "Deaths by week, sex " Deaths by week, sex and NUTS 3 region (ESTAT)                       
    # ℹ 42 more rows
    # ℹ Use `print(n = ...)` to see more rows
…
And (2) life expectancy:

``` r
mi_source_coverage("DEMO_R_MLIFEXP") |> dplyr::arrange(desc(year))
```

    # A tibble: 96 × 5
       nuts_level year  source_name    short_description    description                                          
       <chr>      <chr> <chr>          <chr>                <chr>                                                
     1 0          2021  DEMO_R_MLIFEXP Life expectancy by a Life expectancy by age, sex and NUTS 2 region (ESTAT)
     2 1          2021  DEMO_R_MLIFEXP Life expectancy by a Life expectancy by age, sex and NUTS 2 region (ESTAT)
     3 2          2021  DEMO_R_MLIFEXP Life expectancy by a Life expectancy by age, sex and NUTS 2 region (ESTAT)
     4 0          2020  DEMO_R_MLIFEXP Life expectancy by a Life expectancy by age, sex and NUTS 2 region (ESTAT)
     5 1          2020  DEMO_R_MLIFEXP Life expectancy by a Life expectancy by age, sex and NUTS 2 region (ESTAT)
     6 2          2020  DEMO_R_MLIFEXP Life expectancy by a Life expectancy by age, sex and NUTS 2 region (ESTAT)
     7 0          2019  DEMO_R_MLIFEXP Life expectancy by a Life expectancy by age, sex and NUTS 2 region (ESTAT)
     8 1          2019  DEMO_R_MLIFEXP Life expectancy by a Life expectancy by age, sex and NUTS 2 region (ESTAT)
     9 2          2019  DEMO_R_MLIFEXP Life expectancy by a Life expectancy by age, sex and NUTS 2 region (ESTAT)
    10 0          2018  DEMO_R_MLIFEXP Life expectancy by a Life expectancy by age, sex and NUTS 2 region (ESTAT)
    # ℹ 86 more rows
    # ℹ Use `print(n = ...)` to see more rows
…
