Get univariate or bivariate data for a specific source — mi_data • mapineqr
…
x: the value of the x variable.

y: the value of the y variable.

    Examples

# \donttest{
# Univariate example
mi_data(
  x_source = "TGS00010",
  year = 2020,
  level = "2",
  x_filters = list(isced11 = "TOTAL", unit = "PC", age = "Y_GE15", freq = "A")
)
#> # A tibble: 910 × 4
#>    best_year geo   geo_name             x
#>    <chr>     <chr> <chr>            <dbl>
#>  1 2021      AL01  Veri              NA  
#>  2 2021      AL02  Qender            NA  
#>  3 2021      AL03  Jug               NA  
#>  4 2021      AT11  Burgenland         4.2
#>  5 2021      AT11  Burgenland        NA  
#>  6 2021      AT11  Burgenland         4.2
#>  7 2021      AT12  Niederösterreich   4.2
#>  8 2021      AT12  Niederösterreich   4  
#>  9 2021      AT12  Niederösterreich   4.3
#> 10 2021      AT13  Wien              10.6
#> # ℹ 900 more rows

# Bivariate example
mi_data(
  x_source = "TGS00010",
  y_source = "DEMO_R_MLIFEXP",
  year = 2020,
  level = "2",
  x_filters = list(isced11 = "TOTAL", unit = "PC", age = "Y_GE15", freq = "A"),
  y_filters = list(unit = "YR", age = "Y_LT1", freq = "A")
)
#> # A tibble: 2,000 × 5
#>    best_year geo   geo_name       x     y
#>    <chr>     <chr> <chr>      <dbl> <dbl>
#>  1 2018      AL01  Veri        NA    75.1
#>  2 2018      AL01  Veri        NA    77.3
#>  3 2018      AL01  Veri        NA    79.5
#>  4 2018      AL02  Qender      NA    78.9
#>  5 2018      AL02  Qender      NA    81.5
#>  6 2018      AL02  Qender      NA    76.5
#>  7 2018      AL03  Jug         NA    76.2
#>  8 2018      AL03  Jug         NA    78.2
#>  9 2018      AL03  Jug         NA    74.3
#> 10 2018      AT11  Burgenland   4.2  79.8
#> # ℹ 1,990 more rows
…
